module majoo_pos

go 1.16

require (
	github.com/dgrijalva/jwt-go v3.2.0+incompatible // indirect
	github.com/gin-gonic/gin v1.7.2 // indirect
	github.com/go-playground/validator/v10 v10.6.1 // indirect
	github.com/go-redis/redis/v7 v7.4.0 // indirect
	github.com/golang/protobuf v1.5.2 // indirect
	github.com/gorilla/mux v1.8.0 // indirect
	github.com/jinzhu/gorm v1.9.16 // indirect
	github.com/json-iterator/go v1.1.11 // indirect
	github.com/leodido/go-urn v1.2.1 // indirect
	github.com/mattn/go-isatty v0.0.13 // indirect
	github.com/modern-go/concurrent v0.0.0-20180306012644-bacd9c7ef1dd // indirect
	github.com/modern-go/reflect2 v1.0.1 // indirect
	github.com/twinj/uuid v1.0.0 // indirect
	github.com/ugorji/go v1.2.6 // indirect
	golang.org/x/crypto v0.0.0-20210513164829-c07d793c2f9a // indirect
	golang.org/x/sys v0.0.0-20210525143221-35b2ab0089ea // indirect
	golang.org/x/text v0.3.6 // indirect
	gopkg.in/go-playground/assert.v1 v1.2.1 // indirect
	gopkg.in/go-playground/validator.v9 v9.29.1 // indirect
	gopkg.in/yaml.v2 v2.4.0 // indirect
)
